{
  "project_info": {
    "project_number": "1020157334621",
    "firebase_url": "https://nhviewer.firebaseio.com",
    "project_id": "nhviewer",
    "storage_bucket": "nhviewer.appspot.com"
  },
  "client": [
    {
      "client_info": {
        "mobilesdk_app_id": "1:1020157334621:android:5c1aca008a4ba1dc",
        "android_client_info": {
          "package_name": "personal.ttd.nhviewer"
        }
      },
      "oauth_client": [
        {
          "client_id": "1020157334621-gtjmntu3g14rnqe424iimtt55t67prcp.apps.googleusercontent.com",
          "client_type": 1,
          "android_info": {
            "package_name": "personal.ttd.nhviewer",
            "certificate_hash": "eadf500bd08c21fe39e4e3e5b2b1d3c360748e55"
          }
        },
        {
          "client_id": "1020157334621-6j478e8rpcgjkc7381imnuehu6dece3d.apps.googleusercontent.com",
          "client_type": 3
        }
      ],
      "api_key": [
        {
          "current_key": "AIzaSyBLz3T5dIXBfwp4VY2bh28zCv44jIUzmgg"
        }
      ],
      "services": {
        "appinvite_service": {
          "other_platform_oauth_client": [
            {
              "client_id": "1020157334621-6j478e8rpcgjkc7381imnuehu6dece3d.apps.googleusercontent.com",
              "client_type": 3
            }
          ]
        }
      }
    }
  ],
  "configuration_version": "1"
}